[
 {"key":"ferrari-166","label":"166"},{"key":"ferrari-166s","label":"166S"},{"key":"ferrari-250","label":"250"},
  {"key":"ferrari-250-gto","label":"250 GTO"},{"key":"ferrari-275","label":"275"},{"key":"ferrari-288-gto","label":"288 GTO"},{"key":"ferrari-308-gts","label":"308 GTS"},{"key":"ferrari-328","label":"328"},{"key":"ferrari-330","label":"330"},{"key":"ferrari-348","label":"348"},{"key":"ferrari-360","label":"360"},{"key":"ferrari-430-scuderia","label":"430 Scuderia"},{"key":"ferrari-456-gt","label":"456 GT"},{"key":"ferrari-458-italia","label":"458 Italia"},{"key":"ferrari-488-gtb","label":"488 GTB"},{"key":"ferrari-550","label":"550"},{"key":"ferrari-550-barchetta","label":"550 Barchetta"},{"key":"ferrari-550-maranello","label":"550 Maranello"},{"key":"ferrari-575-gt","label":"575 GT"},{"key":"ferrari-575m-maranello","label":"575M Maranello"},{"key":"ferrari-599-gtb-fiorano","label":"599 GTB Fiorano"},{"key":"ferrari-612-scaglietti","label":"612 Scaglietti"},{"key":"ferrari-america","label":"America"},{"key":"ferrari-auto-avio-costruzioni-815","label":"Auto Avio Costruzioni 815"},
  {"key":"ferrari-berlinetta-boxer","label":"Berlinetta Boxer"},{"key":"ferrari-califonia","label":"Califonia"},{"key":"ferrari-daytona","label":"Daytona"},{"key":"ferrari-dino","label":"Dino"},{"key":"ferrari-enzo","label":"Enzo"},{"key":"ferrari-f355","label":"F355"},
  {"key":"ferrari-f40","label":"F40"},{"key":"ferrari-f430","label":"F430"},
  {"key":"ferrari-f43o-challenge","label":"F43O Challenge"},{"key":"ferrari-f50","label":"F50"},
  {"key":"ferrari-ff","label":"FF"},{"key":"ferrari-fx","label":"FX"},{"key":"ferrari-fxx","label":"FXX"},
  {"key":"ferrari-laferrari","label":"Laferrari"},{"key":"ferrari-mythos","label":"Mythos"},{"key":"ferrari-p4-5-by-pininfarina","label":"P4 5 by Pininfarina"},{"key":"ferrari-tr","label":"TR"},{"key":"ferrari-testarossa","label":"Testarossa"},{"key":"ferrari-other-model","label":"Other Model"},


 {"key":"toyota-4runner","label":"4Runner"},{"key":"toyota-avalon","label":"Avalon"},{"key":"toyota-avensis","label":"Avensis"},{"key":"toyota-aygo","label":"Aygo"},{"key":"toyota-camry","label":"Camry"},{"key":"toyota-carina","label":"Carina"},{"key":"toyota-coaster","label":"Coaster"},{"key":"toyota-corolla","label":"Corolla"},{"key":"toyota-corona","label":"Corona"},{"key":"toyota-corsa","label":"Corsa"},{"key":"toyota-echo","label":"Echo"},{"key":"toyota-fj-cruiser","label":"FJ Cruiser"},{"key":"toyota-fortuner","label":"Fortuner"},{"key":"toyota-hiace","label":"Hiace"},{"key":"toyota-highlander","label":"Highlander"},{"key":"toyota-hilux","label":"Hilux"},{"key":"toyota-land-cruiser","label":"Land Cruiser"},{"key":"toyota-prius","label":"Prius"},{"key":"toyota-rav4","label":"RAV4"},{"key":"toyota-sequoia","label":"Sequoia"},{"key":"toyota-sera","label":"Sera"},{"key":"toyota-sienna","label":"Sienna"},{"key":"toyota-solara","label":"Solara"},{"key":"toyota-sprinter","label":"Sprinter"},{"key":"toyota-t100","label":"T100"},{"key":"toyota-tacoma","label":"Tacoma"},{"key":"toyota-tundra","label":"Tundra"},{"key":"toyota-urban-cruiser","label":"Urban Cruiser"},{"key":"toyota-venza","label":"Venza"},{"key":"toyota-yaris","label":"Yaris"},{"key":"toyota-other-model","label":"Other Model"},

  {"key":"isuzu-amigo","label":"Amigo"},{"key":"isuzu-ascender","label":"Ascender"},{"key":"isuzu-aska","label":"Aska"},{"key":"isuzu-axiom","label":"Axiom"},{"key":"isuzu-d-max","label":"D-Max"},{"key":"isuzu-gemini","label":"Gemini"},{"key":"isuzu-hombre","label":"Hombre"},{"key":"isuzu-mu-7","label":"MU 7"},{"key":"isuzu-mu-x","label":"MU X"},{"key":"isuzu-oasis","label":"Oasis"},{"key":"isuzu-p-up","label":"P'up"},{"key":"isuzu-panther","label":"Panther"},{"key":"isuzu-piazza","label":"Piazza"},{"key":"isuzu-rodeo","label":"Rodeo"},{"key":"isuzu-trooper","label":"Trooper"},{"key":"isuzu-vehicross","label":"VehiCROSS"},{"key":"isuzu-vertex","label":"Vertex"},{"key":"isuzu-other-model","label":"Other Model"},


  {"key":"chevrolet-avalanche","label":"Avalanche"},{"key":"chevrolet-aveo","label":"Aveo"},{"key":"chevrolet-camaro","label":"Camaro"},{"key":"chevrolet-chabol","label":"Chabol"},{"key":"chevrolet-cobalt","label":"Cobalt"},{"key":"chevrolet-cruze","label":"Cruze"},{"key":"chevrolet-equinox","label":"Equinox"},{"key":"chevrolet-express","label":"Express"},{"key":"chevrolet-malibu","label":"Malibu"},{"key":"chevrolet-matiz","label":"Matiz"},{"key":"chevrolet-optra","label":"Optra"},{"key":"chevrolet-orabo","label":"Orabo"},{"key":"chevrolet-prisma","label":"Prisma"},{"key":"chevrolet-prizm","label":"Prizm"},{"key":"chevrolet-ss","label":"SS"},{"key":"chevrolet-sonic","label":"Sonic"},{"key":"chevrolet-spark","label":"Spark"},{"key":"chevrolet-tavera","label":"Tavera"},{"key":"chevrolet-tracker","label":"Tracker"},{"key":"chevrolet-trailblazer","label":"TrailBlazer"},{"key":"chevrolet-other-model","label":"Other Model"},

  {"key":"opel-other-model","label":"Other Model"},

 {"key":"mercedes-a-class","label":"A Class"},{"key":"mercedes-b-class","label":"B Class"},{"key":"mercedes-brabus","label":"Brabus"},{"key":"mercedes-cla","label":"CLA"},{"key":"mercedes-cls","label":"CLS"},{"key":"mercedes-cclass","label":"Cclass"},{"key":"mercedes-cita","label":"Cita"},{"key":"mercedes-eclass","label":"EClass"},{"key":"mercedes-g-wagon","label":"G Wagon"},{"key":"mercedes-gclass","label":"GClass"},{"key":"mercedes-gla","label":"GLA"},{"key":"mercedes-glc","label":"GLC"},{"key":"mercedes-gle","label":"GLE"},{"key":"mercedes-glk","label":"GLK"},{"key":"mercedes-gls","label":"GLS"},{"key":"mercedes-m","label":"M"},{"key":"mercedes-maybach","label":"Maybach"},{"key":"mercedes-s","label":"S"},{"key":"mercedes-sl","label":"SL"},{"key":"mercedes-slc","label":"SLC"},{"key":"mercedes-slk","label":"SLK"},{"key":"mercedes-sls","label":"SLS"},{"key":"mercedes-sprinter","label":"Sprinter"},{"key":"mercedes-vclass","label":"VClass"},{"key":"mercedes-vito","label":"Vito"},{"key":"mercedes-other-model","label":"Other Model"},

 {"key":"suzuki-apv","label":"APV"},{"key":"suzuki-alto","label":"Alto"},{"key":"suzuki-grand-vitara","label":"Grand Vitara"},{"key":"suzuki-kizashi","label":"Kizashi"},{"key":"suzuki-mr-wagon","label":"MR Wagon"},{"key":"suzuki-scross","label":"SCross"},{"key":"suzuki-sx4","label":"SX4"},{"key":"suzuki-swift","label":"Swift"},{"key":"suzuki-verona","label":"Verona"},{"key":"suzuki-vitara","label":"Vitara"},{"key":"suzuki-wagon-r","label":"Wagon R"},{"key":"suzuki-x90","label":"X90"},{"key":"suzuki-xl7","label":"XL7"},{"key":"suzuki-other-model","label":"Other Model"},

 {"key":"fiat-500","label":"500"},{"key":"fiat-500c","label":"500C"},{"key":"fiat-500l","label":"500L"},{"key":"fiat-albea","label":"Albea"},{"key":"fiat-bravo","label":"Bravo"},{"key":"fiat-croma","label":"Croma"},{"key":"fiat-doblo","label":"Doblo"},{"key":"fiat-fiorino","label":"Fiorino"},{"key":"fiat-freemont","label":"Freemont"},{"key":"fiat-grande","label":"Grande"},{"key":"fiat-idea","label":"Idea"},{"key":"fiat-linea","label":"Linea"},{"key":"fiat-palio","label":"Palio"},{"key":"fiat-panda","label":"Panda"},{"key":"fiat-punto","label":"Punto"},{"key":"fiat-sedici","label":"Sedici"},{"key":"fiat-siena","label":"Siena"},{"key":"fiat-stilo","label":"Stilo"},{"key":"fiat-ulysse","label":"Ulysse"},{"key":"fiat-other-model","label":"Other Model"},

 {"key":"rolls-royce-dawn","label":"Dawn"},{"key":"rolls-royce-ghost","label":"Ghost"},{"key":"rolls-royce-phantom","label":"Phantom"},{"key":"rolls-royce-wraith","label":"Wraith"},{"key":"rolls-royce-other-model","label":"Other Model"},


 {"key":"bugatti-chiron","label":"Chiron"},{"key":"bugatti-veyron","label":"Veyron"},{"key":"bugatti-other-model","label":"Other Model"},


 {"key":"kia-borreg","label":"Borreg"},{"key":"kia-cadenza","label":"Cadenza"},{"key":"kia-carens","label":"Carens"},{"key":"kia-carnival","label":"Carnival"},{"key":"kia-ceed","label":"Ceed"},{"key":"kia-combi","label":"Combi"},{"key":"kia-concord","label":"Concord"},{"key":"kia-credos","label":"Credos"},{"key":"kia-desimeda","label":"Desimeda"},{"key":"kia-forte","label":"Forte"},{"key":"kia-k9","label":"K9"},{"key":"kia-mohave","label":"Mohave"},{"key":"kia-morning","label":"Morning"},{"key":"kia-opirus","label":"Opirus"},{"key":"kia-optima","label":"Optima"},{"key":"kia-picanto","label":"Picanto"},{"key":"kia-pride","label":"Pride"},{"key":"kia-ray","label":"Ray"},{"key":"kia-retona","label":"Retona"},{"key":"kia-rio","label":"Rio"},{"key":"kia-rondo","label":"Rondo"},{"key":"kia-sedona","label":"Sedona"},{"key":"kia-sephia","label":"Sephia"},{"key":"kia-sorento","label":"Sorento"},{"key":"kia-soul","label":"Soul"},{"key":"kia-spectra","label":"Spectra"},{"key":"kia-sportage","label":"Sportage"},{"key":"kia-venga","label":"Venga"},{"key":"kia-other-model","label":"Other Model"},


  {"key":"mitsubishi-380","label":"380"},{"key":"mitsubishi-airtreck","label":"Airtreck"},{"key":"mitsubishi-carisma","label":"Carisma"},{"key":"mitsubishi-challenger","label":"Challenger"},{"key":"mitsubishi-chariot","label":"Chariot"},{"key":"mitsubishi-colt","label":"Colt"},{"key":"mitsubishi-debonair","label":"Debonair"},{"key":"mitsubishi-delica","label":"Delica"},{"key":"mitsubishi-diamante","label":"Diamante"},{"key":"mitsubishi-dignity","label":"Dignity"},{"key":"mitsubishi-dion","label":"Dion"},{"key":"mitsubishi-eclipse","label":"Eclipse"},{"key":"mitsubishi-eclipse-cross","label":"Eclipse Cross"},{"key":"mitsubishi-endeavor","label":"Endeavor"},{"key":"mitsubishi-fto","label":"FTO"},{"key":"mitsubishi-freeca","label":"Freeca"},{"key":"mitsubishi-gto","label":"GTO"},{"key":"mitsubishi-galant","label":"Galant"},{"key":"mitsubishi-grandis","label":"Grandis"},{"key":"mitsubishi-jeep","label":"Jeep"},{"key":"mitsubishi-lancer","label":"Lancer"},{"key":"mitsubishi-mighty-max","label":"MIghty Max"},{"key":"mitsubishi-magna","label":"Magna"},{"key":"mitsubishi-maven","label":"Maven"},{"key":"mitsubishi-minica","label":"Minica"},{"key":"mitsubishi-minicab","label":"Minicab"},{"key":"mitsubishi-mirage","label":"Mirage"},{"key":"mitsubishi-outlander","label":"Outlander"},{"key":"mitsubishi-pajero","label":"Pajero"},{"key":"mitsubishi-pistachio","label":"Pistachio"},{"key":"mitsubishi-proudia","label":"Proudia"},{"key":"mitsubishi-rvr","label":"RVR"},{"key":"mitsubishi-raider","label":"Raider"},{"key":"mitsubishi-toppo","label":"Toppo"},{"key":"mitsubishi-town-box","label":"Town Box"},{"key":"mitsubishi-tredia","label":"Tredia"},{"key":"mitsubishi-triton","label":"Triton"},{"key":"mitsubishi-verada","label":"Verada"},{"key":"mitsubishi-zinger","label":"Zinger"},{"key":"mitsubishi-ek","label":"eK"},{"key":"mitsubishi-i","label":"i"},{"key":"mitsubishi-imiev","label":"iMiEV"},{"key":"mitsubishi-other-model","label":"Other Model"},


 {"key":"nissan-100nx","label":"100NX"},{"key":"nissan-180sx","label":"180SX"},{"key":"nissan-240sx","label":"240SX"},{"key":"nissan-300zx-z32","label":"300ZX Z32"},{"key":"nissan-350z-z33","label":"350Z Z33"},{"key":"nissan-370z-z34","label":"370Z Z34"},{"key":"nissan-almera","label":"Almera"},{"key":"nissan-altima","label":"Altima"},{"key":"nissan-armada","label":"Armada"},{"key":"nissan-atlas","label":"Atlas"},{"key":"nissan-avenir","label":"Avenir"},{"key":"nissan-axxess","label":"Axxess"},{"key":"nissan-bassara","label":"Bassara"},{"key":"nissan-cedric","label":"Cedric"},{"key":"nissan-cefiro","label":"Cefiro"},{"key":"nissan-cima","label":"Cima"},{"key":"nissan-clipper","label":"Clipper"},{"key":"nissan-crew","label":"Crew"},{"key":"nissan-cube","label":"Cube"},{"key":"nissan-elgrand","label":"Elgrand"},{"key":"nissan-figaro","label":"Figaro"},{"key":"nissan-frontier","label":"Frontier"},{"key":"nissan-fuga","label":"Fuga"},{"key":"nissan-gtr","label":"GTR"},{"key":"nissan-hardbody","label":"Hardbody"},{"key":"nissan-homy","label":"Homy"},{"key":"nissan-hypermini","label":"Hypermini"},{"key":"nissan-interstar","label":"Interstar"},{"key":"nissan-juke","label":"Juke"},{"key":"nissan-kix","label":"Kix"},{"key":"nissan-kubistar","label":"Kubistar"},{"key":"nissan-lafesta","label":"Lafesta"},{"key":"nissan-largo","label":"Largo"},{"key":"nissan-latio","label":"Latio"},{"key":"nissan-laurel","label":"Laurel"},{"key":"nissan-leaf","label":"Leaf"},{"key":"nissan-leopard","label":"Leopard"},{"key":"nissan-maxima","label":"Maxima"},{"key":"nissan-micra","label":"Micra"},{"key":"nissan-moco","label":"Moco"},{"key":"nissan-multi","label":"Multi"},{"key":"nissan-murano","label":"Murano"},{"key":"nissan-npt90","label":"NPT90"},{"key":"nissan-nv","label":"NV"},{"key":"nissan-nx","label":"NX"},{"key":"nissan-navara","label":"Navara"},{"key":"nissan-note","label":"Note"},{"key":"nissan-otti","label":"Otti"},{"key":"nissan-pathfinder","label":"Pathfinder"},{"key":"nissan-patrol","label":"Patrol"},{"key":"nissan-pino","label":"Pino"},{"key":"nissan-pintara","label":"Pintara"},{"key":"nissan-pixo","label":"Pixo"},{"key":"nissan-platina","label":"Platina"},{"key":"nissan-prairie","label":"Prairie"},{"key":"nissan-presea","label":"Presea"},{"key":"nissan-president","label":"President"},{"key":"nissan-primastar","label":"Primastar"},{"key":"nissan-primera","label":"Primera"},{"key":"nissan-pulsar","label":"Pulsar"},{"key":"nissan-qashqai","label":"Qashqai"},{"key":"nissan-quest","label":"Quest"},{"key":"nissan-r390-gt1","label":"R390 GT1"},{"key":"nissan-r391","label":"R391"},{"key":"nissan-r90c","label":"R90C"},{"key":"nissan-rasheen","label":"Rasheen"},{"key":"nissan-rnessa","label":"Rnessa"},{"key":"nissan-rogue","label":"Rogue"},{"key":"nissan-roox","label":"Roox"},{"key":"nissan-s-cargo","label":"S Cargo"},{"key":"nissan-safari","label":"Safari"},{"key":"nissan-saurus-jr","label":"Saurus Jr"},{"key":"nissan-sentra","label":"Sentra"},{"key":"nissan-serena","label":"Serena"},{"key":"nissan-silvia","label":"Silvia"},{"key":"nissan-skyline","label":"Skyline"},{"key":"nissan-stagea","label":"Stagea"},{"key":"nissan-stanza","label":"Stanza"},{"key":"nissan-sunny","label":"Sunny"},{"key":"nissan-sylphy","label":"Sylphy"},{"key":"nissan-t12","label":"T12"},{"key":"nissan-t72","label":"T72"},{"key":"nissan-teana","label":"Teana"},{"key":"nissan-terrano","label":"Terrano"},{"key":"nissan-terrano-ii","label":"Terrano II"},{"key":"nissan-titan","label":"Titan"},{"key":"nissan-urvan","label":"Urvan"},{"key":"nissan-vanette","label":"Vanette"},{"key":"nissan-versa","label":"Versa"},{"key":"nissan-wingroad","label":"Wingroad"},{"key":"nissan-winner","label":"Winner"},{"key":"nissan-x-trail","label":"X Trail"},{"key":"nissan-xterra","label":"Xterra"},{"key":"nissan-other-model","label":"Other Model"},


{"key":"hyundai-accent","label":"Accent"},{"key":"hyundai-azera","label":"Azera"},{"key":"hyundai-elantra","label":"Elantra"},{"key":"hyundai-genesis","label":"Genesis"},{"key":"hyundai-getz","label":"Getz"},{"key":"hyundai-grace","label":"Grace"},{"key":"hyundai-grandeur","label":"Grandeur"},{"key":"hyundai-hd1000","label":"HD1000"},{"key":"hyundai-santa-fe","label":"Santa Fe"},{"key":"hyundai-sonata","label":"Sonata"},{"key":"hyundai-tiburon","label":"Tiburon"},{"key":"hyundai-tucson","label":"Tucson"},{"key":"hyundai-veloster","label":"Veloster"},{"key":"hyundai-i10","label":"i10"},{"key":"hyundai-i20","label":"i20"},{"key":"hyundai-i30","label":"i30"},{"key":"hyundai-i40","label":"i40"},{"key":"hyundai-ix20","label":"ix20"},{"key":"hyundai-ix35","label":"ix35"},{"key":"hyundai-other-model","label":"Other Model"},


 {"key":"hummer-h1","label":"H1"},{"key":"hummer-h2","label":"H2"},{"key":"hummer-h3","label":"H3"},{"key":"hummer-other-model","label":"Other Model"},


 {"key":"honda-accord","label":"Accord"},{"key":"honda-airwave","label":"Airwave"},{"key":"honda-amaze","label":"Amaze"},{"key":"honda-ascot","label":"Ascot"},{"key":"honda-avancier","label":"Avancier"},{"key":"honda-brv","label":"BRV"},{"key":"honda-ballade","label":"Ballade"},{"key":"honda-beat","label":"Beat"},{"key":"honda-brio","label":"Brio"},{"key":"honda-crv","label":"CRV"},{"key":"honda-crx","label":"CRX"},{"key":"honda-crz","label":"CRZ"},{"key":"honda-capa","label":"Capa"},{"key":"honda-city","label":"City"},{"key":"honda-civic","label":"Civic"},{"key":"honda-clarity","label":"Clarity"},{"key":"honda-concerto","label":"Concerto"},{"key":"honda-crider","label":"Crider"},{"key":"honda-crossroad","label":"Crossroad"},{"key":"honda-crosstour","label":"Crosstour"},{"key":"honda-domani","label":"Domani"},{"key":"honda-ev-plus","label":"EV Plus"},{"key":"honda-edix","label":"Edix"},{"key":"honda-element","label":"Element"},{"key":"honda-elysion","label":"Elysion"},{"key":"honda-fcx","label":"FCX"},{"key":"honda-frv","label":"FRV"},{"key":"honda-fit","label":"Fit"},{"key":"honda-freed","label":"Freed"},{"key":"honda-grace","label":"Grace"},{"key":"honda-greiz","label":"Greiz"},{"key":"honda-hr-v","label":"HR-V"},{"key":"honda-hobio","label":"Hobio"},{"key":"honda-insight","label":"Insight"},{"key":"honda-inspire","label":"Inspire"},{"key":"honda-integra","label":"Integra"},{"key":"honda-jade","label":"Jade"},{"key":"honda-jazz","label":"Jazz"},{"key":"honda-lagreat","label":"LaGreat"},{"key":"honda-legend","label":"Legend"},{"key":"honda-mc-b","label":"MC B"},{"key":"honda-mobilio","label":"Mobilio"},{"key":"honda-n-box","label":"N Box"},{"key":"honda-n-one","label":"N One"},{"key":"honda-n-wgn","label":"N WGN"},{"key":"honda-nsx","label":"NSX"},{"key":"honda-odyssey","label":"Odyssey"},{"key":"honda-orthia","label":"Orthia"},{"key":"honda-partner","label":"Partner"},{"key":"honda-passport","label":"Passport"},{"key":"honda-pilot","label":"Pilot"},{"key":"honda-prelude","label":"Prelude"},{"key":"honda-rafaga","label":"Rafaga"},{"key":"honda-ridgeline","label":"Ridgeline"},{"key":"honda-s2000","label":"S2000"},{"key":"honda-s660","label":"S660"},{"key":"honda-smx","label":"SMX"},{"key":"honda-saber","label":"Saber"},{"key":"honda-shuttle","label":"Shuttle"},{"key":"honda-spirior","label":"Spirior"},{"key":"honda-stepwgn","label":"StepWGN"},{"key":"honda-stream","label":"Stream"},{"key":"honda-thats","label":"Thats"},{"key":"honda-today","label":"Today"},{"key":"honda-torneo","label":"Torneo"},{"key":"honda-vamos","label":"Vamos"},{"key":"honda-vezel","label":"Vezel"},{"key":"honda-zest","label":"Zest"},{"key":"honda-other-model","label":"Other Model"}

]